Predicting the NCAA Tournament Bracket using Machine Learning - Tyler Fangman's GitHub Site
…
Then run the fit and this takes a few minutes.

log_fit <- 
  log_workflow %>% 
  fit(data = log_train)

Then I run the train predict.

trainpredict <- log_fit %>% predict(new_data = log_train) %>%
  bind_cols(log_train)

trainpredict

## # A tibble: 37,341 x 14
##    .pred_class Season Team  Date       Opponent Outcome Rolling_Mean_Of…
##    <fct>       <chr>  <chr> <date>     <chr>    <fct>              <dbl>
##  1 L           2014-… Abil… 2014-11-19 Tulsa    L                  127. 
##  2 L           2014-… Abil… 2014-11-22 Duquesne L                  127. 
##  3 L           2014-… Abil… 2014-11-29 UC-Rive… L                   91.8
##  4 L           2014-… Abil… 2014-12-04 Sacrame… W                   88.3
##  5 L           2014-… Abil… 2014-12-06 Houston  L                   92.5
##  6 L           2014-… Abil… 2014-12-17 Loyola … L                   93.7
##  7 W           2014-… Abil… 2014-12-23 Arkansa… W                   98.6
##  8 L           2014-… Abil… 2014-12-28 Grand C… L                   96.4
##  9 W           2014-… Abil… 2015-01-04 Central… W                   98.9
## 10 W           2014-… Abil… 2015-01-10 Nicholl… W                  103. 
## # … with 37,331 more rows, and 7 more variables: Rolling_Mean_Defensive <dbl>,
## #   Rolling_Mean_Possessions <dbl>, TeamSRS <dbl>,
## #   Opponent_Rolling_Offensive <dbl>, Opponent_Rolling_Mean_Defensive <dbl>,
## #   Opponent_Rolling_Mean_Possessions <dbl>, OpponentSRS <dbl>

trainpredict <- log_fit %>% predict(new_data = log_train, type="prob") %>%
  bind_cols(trainpredict)

trainpredict

## # A tibble: 37,341 x 16
##    .pred_L .pred_W .pred_class Season Team  Date       Opponent Outcome
##      <dbl>   <dbl> <fct>       <chr>  <chr> <date>     <chr>    <fct>  
##  1  0.941   0.0587 L           2014-… Abil… 2014-11-19 Tulsa    L      
##  2  0.857   0.143  L           2014-… Abil… 2014-11-22 Duquesne L      
##  3  0.886   0.114  L           2014-… Abil… 2014-11-29 UC-Rive… L      
##  4  0.539   0.461  L           2014-… Abil… 2014-12-04 Sacrame… W      
##  5  0.914   0.0857 L           2014-… Abil… 2014-12-06 Houston  L      
##  6  0.968   0.0315 L           2014-… Abil… 2014-12-17 Loyola … L      
##  7  0.191   0.809  W           2014-… Abil… 2014-12-23 Arkansa… W      
##  8  0.902   0.0976 L           2014-… Abil… 2014-12-28 Grand C… L      
##  9  0.0853  0.915  W           2014-… Abil… 2015-01-04 Central… W      
## 10  0.190   0.810  W           2014-… Abil… 2015-01-10 Nicholl… W      
## # … with 37,331 more rows, and 8 more variables: Rolling_Mean_Offensive <dbl>,
## #   Rolling_Mean_Defensive <dbl>, Rolling_Mean_Possessions <dbl>,
## #   TeamSRS <dbl>, Opponent_Rolling_Offensive <dbl>,
## #   Opponent_Rolling_Mean_Defensive <dbl>,
## #   Opponent_Rolling_Mean_Possessions <dbl>, OpponentSRS <dbl>
…
For predicting losses it was extremely confident in.

roc_auc(trainpredict, truth = Outcome, .pred_L)

## # A tibble: 1 x 3
##   .metric .estimator .estimate
##   <chr>   <chr>          <dbl>
## 1 roc_auc binary         0.999

testpredict <- log_fit %>% predict(new_data = log_test) %>%
  bind_cols(log_test)

testpredict

## # A tibble: 9,335 x 14
##    .pred_class Season Team  Date       Opponent Outcome Rolling_Mean_Of…
##    <fct>       <chr>  <chr> <date>     <chr>    <fct>              <dbl>
##  1 W           2014-… Abil… 2014-12-22 South C… W                   97.9
##  2 L           2014-… Abil… 2015-03-05 Incarna… L                  102. 
##  3 L           2014-… Air … 2015-02-04 New Mex… W                  102. 
##  4 L           2014-… Air … 2015-02-21 Colorad… L                  101. 
##  5 W           2014-… Akron 2014-12-04 Western… W                  103. 
##  6 W           2014-… Akron 2015-01-06 Western… W                  103. 
##  7 L           2014-… Akron 2015-01-17 Central… W                  104. 
##  8 W           2014-… Akron 2015-03-09 Norther… W                   85.0
##  9 L           2014-… Alab… 2014-11-25 Jackson… L                   81.7
## 10 L           2014-… Alab… 2014-12-19 Marquet… L                   92.6
## # … with 9,325 more rows, and 7 more variables: Rolling_Mean_Defensive <dbl>,
## #   Rolling_Mean_Possessions <dbl>, TeamSRS <dbl>,
## #   Opponent_Rolling_Offensive <dbl>, Opponent_Rolling_Mean_Defensive <dbl>,
## #   Opponent_Rolling_Mean_Possessions <dbl>, OpponentSRS <dbl>
…
